/**
 *
 *  Copyright 2005-2019 Pierre-Henri WUILLEMIN et Christophe GONZALES (LIP6)
 *   {prenom.nom}_at_lip6.fr
 *
 *  This library is free software: you can redistribute it and/or modify
 *  it under the terms of the GNU Lesser General Public License as published by
 *  the Free Software Foundation, either version 3 of the License, or
 *  (at your option) any later version.
 *
 *  This library is distributed in the hope that it will be useful,
 *  but WITHOUT ANY WARRANTY; without even the implied warranty of
 *  MERCHANTABILITY or FITNESS FOR A PARTICULAR PURPOSE.  See the
 *  GNU Lesser General Public License for more details.
 *
 *  You should have received a copy of the GNU Lesser General Public License
 *  along with this library.  If not, see <http://www.gnu.org/licenses/>.
 *
 */
 

%define ADD_METHODS_FOR_ALL_GUM_GRAPHCLASS(classname)
%extend classname {
  PyObject *nodes() const {
    return PyAgrumHelper::PySetFromNodeSet(self->nodes());
    PyObject* q=PyList_New(0);

    for ( auto node : self->nodes()) {
      PyList_Append(q,PyInt_FromLong(node));
    }

    return q;
  };

%pythoncode {
  def connectedComponents(graph):
    """ connected components from a graph/BN
    
    Compute the connected components of a pyAgrum's graph or Bayesian Network
    (more generally an object that has `nodes`, `children`/`parents` or `neighbours` methods)

    The firstly visited node for each component is called a 'root' and is used as a key for the component.
    This root has been arbitrarily chosen during the algorithm.
    
    Parameters
    ----------
    graph : pyAgrum's graph 
        A graph, a Bayesian network, more generally an object that has `nodes`, `children`/`parents` or `neighbours` methods in which the search will take place
        
    Returns
    -------
    dict(int,Set[int])
      dict of connected components (as set of nodeIds (int)) with a nodeId (root) of each component as key.
      
    """
    nodes=graph.nodes()
    connected_components=dict()

    def parcours(node,orig):
        cc={node}
        nodes.discard(node)
        if hasattr(graph,'children'):
            for chi in graph.children(node):
                if chi!=orig:
                    if chi in nodes:
                        cc|=parcours(chi,node)
                        
        if hasattr(graph,'parents'):
            for par in graph.parents(node):
                if par!=orig:
                    if par in nodes:
                        cc|=parcours(par,node)
                                    
        if hasattr(graph,'neighbours'):
            for nei in graph.neighbours(node):
                if nei!=orig:
                    if nei in nodes:
                        cc|=parcours(nei,node)
        return cc       

    while (len(nodes)>0):
        root=nodes.pop()
        connected_components[root]=parcours(root,None)
    return connected_components
}

};
%enddef // ADD_METHODS_FOR_ALL_GUM_GRAPHCLASS

ADD_METHODS_FOR_ALL_GUM_GRAPHCLASS(gum::DiGraph); // add for the sub-classes (including MixedGraph)
ADD_METHODS_FOR_ALL_GUM_GRAPHCLASS(gum::UndiGraph);
ADD_METHODS_FOR_ALL_GUM_GRAPHCLASS(gum::EssentialGraph);
ADD_METHODS_FOR_ALL_GUM_GRAPHCLASS(gum::MarkovBlanket);
ADD_METHODS_FOR_ALL_GUM_GRAPHCLASS(gum::IBayesNet);

%ignore gum::EssentialGraph::nodes const;
%ignore gum::MarkovBlanket::nodes const;

%define ADD_NODES_METHOD_TO_GRAPHCLASS(classname)
%ignore classname::addNodes(gum::Size n);
%extend classname {
  PyObject *addNodes(gum::Size n) const {
    PyObject* q=PySet_New(0);

    for(auto node : const_cast<classname *>(self)->addNodes(n)) {
          PySet_Add(q,PyInt_FromLong(node));
        }

    return q;
  };
};
%enddef
ADD_NODES_METHOD_TO_GRAPHCLASS(gum::DiGraph);
ADD_NODES_METHOD_TO_GRAPHCLASS(gum::UndiGraph);
ADD_NODES_METHOD_TO_GRAPHCLASS(gum::MixedGraph);
// automatically done for subclass
//ADD_NODES_METHOD_TO_GRAPHCLASS(gum::DAG);

%define ADD_DI_METHOD_TO_GRAPHCLASS(classname)
%extend classname {
  PyObject *arcs() const { // add for the sub-classes (including MixedGraph)
    return PyAgrumHelper::PySetFromArcSet(self->arcs());
  };
  PyObject *parents(gum::NodeId id) const {
    return PyAgrumHelper::PySetFromNodeSet(self->parents(id));
  };
  PyObject *children(gum::NodeId id) const {
    return PyAgrumHelper::PySetFromNodeSet(self->children(id));
  };
};
%enddef
ADD_DI_METHOD_TO_GRAPHCLASS(gum::DiGraph); // add for the sub-classes (including MixedGraph)
ADD_DI_METHOD_TO_GRAPHCLASS(gum::EssentialGraph);
%ignore gum::EssentialGraph::arcs const;
%ignore gum::EssentialGraph::parents const;
%ignore gum::EssentialGraph::children const;
ADD_DI_METHOD_TO_GRAPHCLASS(gum::MarkovBlanket);
%ignore gum::MarkovBlanket::arcs const;
%ignore gum::MarkovBlanket::parents const;
%ignore gum::MarkovBlanket::children const;

%define ADD_UNDI_METHOD_TO_GRAPHCLASS(classname)
%extend classname {
  PyObject *edges() const { // add for the sub-classes (including MixedGraph)
    return PyAgrumHelper::PySetFromEdgeSet(self->edges());
  };

  PyObject *neighbours(gum::NodeId id) const {
    return PyAgrumHelper::PySetFromNodeSet(self->neighbours(id));
  };
};
%enddef
ADD_UNDI_METHOD_TO_GRAPHCLASS(gum::UndiGraph); // add for the sub-classes (including MixedGraph)
ADD_UNDI_METHOD_TO_GRAPHCLASS(gum::EssentialGraph);
%ignore gum::EssentialGraph::edges const;
%ignore gum::EssentialGraph::neighbours const;


%extend gum::CliqueGraph {
  PyObject *clique(const gum::NodeId clique) const {
    PyObject* q=PySet_New(0);

    for(auto node : self->clique(clique)) {
          PySet_Add(q,PyInt_FromLong(node));
        }

    return q;
  };

  PyObject* separator(const gum::NodeId cliq1,const gum::NodeId cliq2) const {
    PyObject* q=PySet_New(0);

    for(auto node : self->separator(cliq1,cliq2)) {
          PySet_Add(q,PyInt_FromLong(node));
        }

    return q;
  };

  %pythoncode {
  def toDotWithNames(self,bn):
      """
      Parameters
      ----------
      bn : pyAgrum.BayesNet
      a Bayesian network

      Returns
      -------
      str
        a friendly display of the graph in DOT format where ids have been changed according to their correspondance in the BN
      """
      def nameFromId(m):
        return " ".join([bn.variable(int(n)).name()
                         for n in m.group().split("-")])
      import re
      m = re.compile('(?<=label=\")\d+[\-\d+]*')
      return m.sub(nameFromId,self.toDot())
    }
};
%ignore gum::CliqueGraph::clique;
%ignore gum::CliqueGraph::separator;
%ignore gum::CliqueGraph::addNodeWithId;
%ignore gum::CliqueGraph::addEdge(const gum::NodeId,const gum::NodeId);

%include "extensions/JunctionTreeGenerator.h"

%{
#include "extensions/JunctionTreeGenerator.h"
%}
