/**
 *
 *  Copyright 2005-2019 Pierre-Henri WUILLEMIN et Christophe GONZALES (LIP6)
 *   {prenom.nom}_at_lip6.fr
 *
 *  This library is free software: you can redistribute it and/or modify
 *  it under the terms of the GNU Lesser General Public License as published by
 *  the Free Software Foundation, either version 3 of the License, or
 *  (at your option) any later version.
 *
 *  This library is distributed in the hope that it will be useful,
 *  but WITHOUT ANY WARRANTY; without even the implied warranty of
 *  MERCHANTABILITY or FITNESS FOR A PARTICULAR PURPOSE.  See the
 *  GNU Lesser General Public License for more details.
 *
 *  You should have received a copy of the GNU Lesser General Public License
 *  along with this library.  If not, see <http://www.gnu.org/licenses/>.
 *
 */
 
%ignore *::insertEvidence();
%ignore *::getTriangulation();
%ignore *::displayStrongJunctionTree();

// copy: M indicates the modifications
%feature("shadow") gum::InfluenceDiagramInference<double>::setEvidence %{
def setEvidence(self, evidces):
    """
    Erase all the evidences and apply addEvidence(key,value) for every pairs in evidces.

    Parameters
    ----------
    evidces : dict
      a dict of evidences

    Raises
    ------
    gum.InvalidArgument
        If one value is not a value for the node
    gum.InvalidArgument
        If the size of a value is different from the domain side of the node
    gum.FatalError
        If one value is a vector of 0s
    gum.UndefinedElement
        If one node does not belong to the Bayesian network
    """
    if not isinstance(evidces, dict):
        raise TypeError("setEvidence parameter must be dict, not %s"%(type(evidces)))
    bn = self.influenceDiagram()

    # set evidences
    self.list_pot = []

    try:
      items=evidces.iteritems()
    except AttributeError:
      items=evidces.items()

    for var_name, evidce in items:
        pot = Potential()

        if isinstance(var_name, int):
            var = bn.variable(var_name)
        elif isinstance(var_name, str):
            var = bn.variableFromName(var_name)
        else:
            raise TypeError('values of the dict must be int or string')

        pot.add(var)
        if isinstance(evidce, (int, float, str)):
            pot[:] = 0
            # determine the var type
            try:
                cast_var = var.toLabelizedVar()
                if isinstance(evidce, int):
                    index = evidce
                elif isinstance(evidce, str):
                    index = cast_var[evidce]
                else:
                    raise TypeError('values of the dict must be int or string')
            except RuntimeError:
                try:
                    cast_var = var.toRangeVar()
                    if isinstance(evidce, int):
                        index = cast_var[str(evidce)]
                    elif isinstance(evidce, str):
                        index = cast_var[evidce]
                    else:
                        raise TypeError('values of the dict must be int or string')
                except RuntimeError:
                    cast_var = var.toDiscretizedVar()
                    if isinstance(evidce, float):
                        index = cast_var.index(evidce)
                    elif isinstance(evidce, str):
                        index = cast_var.index(float(evidce))
                    else:
                        raise TypeError('values of the dict must be float or string')
            pot[index] = 1
        elif isinstance(evidce, (list, tuple)):
            pot[:] = evidce
        else:
            raise TypeError('dict values must be number, string or sequence')
        self.list_pot.append(pot)

    self.eraseAllEvidence()
    self._setEvidence(self.list_pot)
%}


// these void class extensions are rewritten by "shadow" declarations
%extend gum::InfluenceDiagramInference<double> {
    const gum::InfluenceDiagram<double>& influenceDiagram() const {
      return static_cast<const gum::IInfluenceDiagramInference<double> *>($self)->influenceDiagram();
    }
    void setEvidence(PyObject *evidces) {}

    // evidences is a python list of potentials*
    void _setEvidence(PyObject *evidences) {
      if (PySequence_Check(evidences)==0) {
        PyErr_SetString(PyExc_TypeError, "arg must be a sequence");
        return;
      }
      gum::List<const gum::Potential<double>* > l;

      for(Py_ssize_t i=0;i<PySequence_Size(evidences);i++) {
        PyObject* pot=PyList_GetItem(evidences, i);

	void *argp1 = 0 ;
	int res1 = 0 ;
	res1 = SWIG_ConvertPtr(pot, &argp1,SWIGTYPE_p_gum__PotentialT_double_t, 0 |  0 );
	if (!SWIG_IsOK(res1)) {
	  PyErr_SetString(PyExc_TypeError,"Elements of arg must be Potentials");
	  return;
	}
	gum::Potential< double > *arg1 =  reinterpret_cast< gum::Potential< double > * >(argp1);
	l.push_front(arg1);
      }
      self->insertEvidence(l);
    }

    const std::string junctionTreeToDot() {
      std::stringstream stream;
      self->displayStrongJunctionTree(stream);
      return stream.str();
    };

}

