%feature("docstring") gum::LoopyBeliefPropagation
"
Class used for inferences using loopy belief propagation algorithm.

LoopyBeliefPropagation(bn) -> LoopyBeliefPropagation
    Parameters:
        * **bn** (*pyAgrum.BayesNet*) -- a Bayesian network
"